{
  "development": {
    "username": "postgres",
    "password": "1",
    "database": "yugioh",
    "host": "localhost",
    "dialect": "postgres",
    "port": "5433"
  },
  "test": {
    "username": "postgres",
    "password": "1",
    "database": "yugioh-test",
    "host": "localhost",
    "dialect": "postgres",
    "port": "5433"
  },
  "production": {
    "username": "tgwwprhbwijfzw",
    "password": "0eb6d3a7b6fd7676278d156dfa9592c886b61ea6cc8722d89af57dafc55a93b8",
    "database": "d7ko5cpu7ig73a",
    "host": "ec2-3-224-164-189.compute-1.amazonaws.com",
    "dialect": "postgres",
    "ssl": {
        "rejectUnathorized": false
    }
  }
}
